{
  "pages": [
    {
      "id": "User Admin",
      "isDefault": true
    }
  ],
  "viewMode": false,
  "appIsExample": false,
  "unreadCommentThreads": 0,
  "color": "#D9E7FF",
  "unpublishedCustomJSLibs": [],
  "publishedCustomJSLibs": [],
  "evaluationVersion": 2,
  "applicationVersion": 2,
  "collapseInvisibleWidgets": true,
  "isManualUpdate": false,
  "deleted": false
}