{
    "boxShadow": "none",
    "iconSVG": "/static/media/icon.a7b19dc8b31d68fcff57f1d2c0084a18.svg",
    "labelText": "Role",
    "topRow": 27,
    "labelWidth": 5,
    "type": "SELECT_WIDGET",
    "serverSideFiltering": false,
    "defaultOptionValue": "USER",
    "animateLoading": true,
    "leftColumn": 1,
    "dynamicBindingPathList": [
        {"key": "accentColor"},
        {"key": "borderRadius"}
    ],
    "placeholderText": "Select option",
    "isDisabled": false,
    "isRequired": false,
    "dynamicHeight": "FIXED",
    "accentColor": "{{appsmith.theme.colors.primaryColor}}",
    "isVisible": true,
    "version": 1,
    "tags": [
        "Suggested",
        "Select"
    ],
    "isLoading": false,
    "borderRadius": "{{appsmith.theme.borderRadius.appBorderRadius}}",
    "mobileBottomRow": 35,
    "widgetName": "NewUserRole",
    "isFilterable": true,
    "dynamicPropertyPathList": [{"key": "sourceData"}],
    "displayName": "Select",
    "searchTags": ["dropdown"],
    "bottomRow": 34,
    "parentRowSpace": 10,
    "hideCard": false,
    "mobileRightColumn": 21,
    "parentColumnSpace": 6.9375,
    "dynamicTriggerPathList": [],
    "labelPosition": "Top",
    "sourceData": "[\n  {\n    \"name\": \"User\",\n    \"code\": \"USER\"\n  },\n  {\n    \"name\": \"Admin\",\n    \"code\": \"ADMIN\"\n  }\n]",
    "key": "yqrszt620a",
    "labelTextSize": "0.875rem",
    "isDeprecated": false,
    "rightColumn": 63,
    "widgetId": "ioxsjocvbm",
    "optionValue": "code",
    "minWidth": 450,
    "parentId": "atscvf1nbi",
    "labelAlignment": "left",
    "renderMode": "CANVAS",
    "mobileTopRow": 28,
    "optionLabel": "name",
    "responsiveBehavior": "fill",
    "mobileLeftColumn": 1,
    "maxDynamicHeight": 9000,
    "minDynamicHeight": 4
}