{
    "resetFormOnClick": false,
    "boxShadow": "none",
    "mobileBottomRow": 22,
    "widgetName": "NewUserClose",
    "onClick": "{{closeModal('Modal1')}}",
    "buttonColor": "{{appsmith.theme.colors.primaryColor}}",
    "displayName": "Button",
    "iconSVG": "/static/media/icon.05d209fafeb13a8569e3b4e97069d9ee.svg",
    "searchTags": [
        "click",
        "submit"
    ],
    "topRow": 36,
    "bottomRow": 40,
    "type": "BUTTON_WIDGET",
    "hideCard": false,
    "mobileRightColumn": 47,
    "animateLoading": true,
    "leftColumn": 34,
    "dynamicBindingPathList": [
        {"key": "buttonColor"},
        {"key": "borderRadius"}
    ],
    "text": "Close",
    "isDisabled": false,
    "key": "a570rtu47k",
    "isDeprecated": false,
    "rightColumn": 50,
    "isDefaultClickDisabled": true,
    "widgetId": "1g8r3e993d",
    "buttonStyle": "PRIMARY",
    "minWidth": 120,
    "isVisible": true,
    "recaptchaType": "V3",
    "version": 1,
    "parentId": "atscvf1nbi",
    "tags": ["Buttons"],
    "renderMode": "CANVAS",
    "isLoading": false,
    "mobileTopRow": 18,
    "responsiveBehavior": "hug",
    "disabledWhenInvalid": false,
    "borderRadius": "{{appsmith.theme.borderRadius.appBorderRadius}}",
    "mobileLeftColumn": 31,
    "buttonVariant": "SECONDARY",
    "placement": "CENTER"
}