{
    "resetFormOnClick": false,
    "boxShadow": "none",
    "mobileBottomRow": 22,
    "widgetName": "NewUserConfirm",
    "onClick": "{{CreateUser.run().then(() => {\n  closeModal('NewUserModal');\n  UsersQuery.run();\n});}}",
    "buttonColor": "{{appsmith.theme.colors.primaryColor}}",
    "displayName": "Button",
    "iconSVG": "/static/media/icon.05d209fafeb13a8569e3b4e97069d9ee.svg",
    "searchTags": [
        "click",
        "submit"
    ],
    "topRow": 36,
    "bottomRow": 40,
    "type": "BUTTON_WIDGET",
    "hideCard": false,
    "mobileRightColumn": 63,
    "animateLoading": true,
    "dynamicTriggerPathList": [{"key": "onClick"}],
    "leftColumn": 50,
    "dynamicBindingPathList": [
        {"key": "buttonColor"},
        {"key": "borderRadius"}
    ],
    "text": "Confirm",
    "isDisabled": false,
    "key": "a570rtu47k",
    "isDeprecated": false,
    "rightColumn": 64,
    "isDefaultClickDisabled": true,
    "widgetId": "w6ptijcznh",
    "buttonStyle": "PRIMARY_BUTTON",
    "minWidth": 120,
    "isVisible": true,
    "recaptchaType": "V3",
    "version": 1,
    "parentId": "atscvf1nbi",
    "tags": ["Buttons"],
    "renderMode": "CANVAS",
    "isLoading": false,
    "mobileTopRow": 18,
    "responsiveBehavior": "hug",
    "disabledWhenInvalid": false,
    "borderRadius": "{{appsmith.theme.borderRadius.appBorderRadius}}",
    "mobileLeftColumn": 47,
    "buttonVariant": "PRIMARY",
    "placement": "CENTER"
}