{
    "boxShadow": "none",
    "mobileBottomRow": 4,
    "widgetName": "IconButton2Copy",
    "onClick": "{{closeModal('Modal1')}}",
    "buttonColor": "{{appsmith.theme.colors.primaryColor}}",
    "displayName": "Icon button",
    "iconSVG": "/static/media/icon.b08054586989b185a0801e9a34f8ad49.svg",
    "searchTags": [
        "click",
        "submit"
    ],
    "topRow": 0,
    "bottomRow": 4,
    "type": "ICON_BUTTON_WIDGET",
    "hideCard": false,
    "mobileRightColumn": 64,
    "animateLoading": true,
    "leftColumn": 58,
    "dynamicBindingPathList": [
        {"key": "buttonColor"},
        {"key": "borderRadius"}
    ],
    "iconSize": 24,
    "isDisabled": false,
    "key": "uifw09enrs",
    "isDeprecated": false,
    "rightColumn": 64,
    "iconName": "cross",
    "widgetId": "hpfrzma7pj",
    "minWidth": 50,
    "isVisible": true,
    "version": 1,
    "parentId": "v0l9q9mo49",
    "tags": ["Buttons"],
    "renderMode": "CANVAS",
    "isLoading": false,
    "mobileTopRow": 0,
    "responsiveBehavior": "hug",
    "borderRadius": "{{appsmith.theme.borderRadius.appBorderRadius}}",
    "mobileLeftColumn": 58,
    "buttonVariant": "TERTIARY"
}